material Bomb/WickEmitterMaterial
{
	technique
	{
		pass
		{
			lighting off
			depth_write off
			scene_blend add

			point_sprites on
			point_size 0.001
			point_size_attenuation on
		}
	}
}

material Bomb/ExplosionMaterial
{
	technique
	{
		pass
		{
			lighting off
			depth_write off
			scene_blend add

			texture_unit
			{
				texture Explosion.png
			}
		}
	}
}

material Bomb/SmokeMaterial
{
	technique
	{
		pass
		{
			lighting off
			scene_blend alpha_blend
			depth_write off
			diffuse vertexcolour

			texture_unit
			{
				texture Smoke.png
				tex_address_mode clamp
			}
		}
	}
}


material Material/PowerUp
{
	technique
	{
		pass
		{
			texture_unit
			{
				texture powerUp.png
			}
		}
	}
}
